backend/data/formal_work/fifo_buggy_fail/fifo_buggy_fail_bmc/engine_0/trace.vcd
$version Generated by Yosys-SMTBMC $end
$timescale 1ns $end
$var integer 32 t smt_step $end
$var event 1 ! smt_clock $end
$scope module formal_wrapper $end
$var wire 1 n0 _va_past_valid $end
$var wire 1 n1 clk $end
$var wire 4 n2 count $end
$var wire 1 n3 empty $end
$var wire 1 n4 full $end
$var wire 8 n5 rd_data $end
$var wire 1 n6 rd_en $end
$var wire 1 n7 rst_n $end
$scope module u_dut $end
$scope module _witness_ $end
$var wire 8 n8 anyseq_auto_setundef_cc_550_execute_200 $end
$var wire 3 n9 anyseq_auto_setundef_cc_550_execute_202 $end
$var wire 8 n10 anyseq_auto_setundef_cc_550_execute_204 $end
$var wire 3 n11 anyseq_auto_setundef_cc_550_execute_206 $end
$upscope $end
$var wire 1 n12 clk $end
$var wire 4 n13 count $end
$var wire 1 n14 empty $end
$var wire 1 n15 full $end
$var wire 8 n33 mem<0> $end
$var wire 8 n34 mem<1> $end
$var wire 8 n36 mem<2> $end
$var wire 8 n35 mem<3> $end
$var wire 8 n40 mem<4> $end
$var wire 8 n39 mem<5> $end
$var wire 8 n37 mem<6> $end
$var wire 8 n38 mem<7> $end
$var wire 8 n16 rd_data $end
$var wire 1 n17 rd_en $end
$var wire 3 n18 rd_ptr $end
$var wire 1 n19 rst_n $end
$var wire 8 n20 wr_data $end
$var wire 1 n21 wr_en $end
$var wire 3 n22 wr_ptr $end
$upscope $end
$scope module u_monitor $end
$var wire 1 n23 assert_count_bounded_EN $end
$var wire 1 n24 clk $end
$var wire 4 n25 count $end
$var wire 1 n26 empty $end
$var wire 1 n27 full $end
$var wire 1 n28 rd_en $end
$var wire 1 n29 rst_n $end
$var wire 1 n30 wr_en $end
$upscope $end
$var wire 8 n31 wr_data $end
$var wire 1 n32 wr_en $end
$upscope $end
$enddefinitions $end
#0
1!
b00000000000000000000000000000000 t
b1 n1
b1 n12
b1 n24
b0 n0
b1100 n2
b0 n3
b0 n4
b00000000 n5
b0 n6
b0 n7
b00000000 n8
b000 n9
b00000000 n10
b000 n11
b1100 n13
b0 n14
b0 n15
b00000000 n16
b0 n17
b000 n18
b0 n19
b00000000 n20
b0 n21
b000 n22
b0 n23
b1100 n25
b0 n26
b0 n27
b0 n28
b0 n29
b0 n30
b00000000 n31
b0 n32
b00000000 n33
bxxxxxxxx n34
bxxxxxxxx n35
bxxxxxxxx n36
bxxxxxxxx n37
bxxxxxxxx n38
bxxxxxxxx n39
bxxxxxxxx n40
#5
b0 n1
b0 n12
b0 n24
#10
1!
b00000000000000000000000000000001 t
b1 n1
b1 n12
b1 n24
b1 n0
b0000 n2
b1 n3
b0 n4
b00000000 n5
b0 n6
b1 n7
b00000000 n8
b000 n9
b00000000 n10
b000 n11
b0000 n13
b1 n14
b0 n15
b00000000 n16
b0 n17
b000 n18
b1 n19
b00000000 n20
b1 n21
b000 n22
b1 n23
b0000 n25
b1 n26
b0 n27
b0 n28
b1 n29
b1 n30
b00000000 n31
b1 n32
b00000000 n33
bxxxxxxxx n34
bxxxxxxxx n35
bxxxxxxxx n36
bxxxxxxxx n37
bxxxxxxxx n38
bxxxxxxxx n39
bxxxxxxxx n40
#15
b0 n1
b0 n12
b0 n24
#20
1!
b00000000000000000000000000000010 t
b1 n1
b1 n12
b1 n24
b1 n0
b0001 n2
b0 n3
b0 n4
b00000000 n5
b0 n6
b1 n7
b00000000 n8
b000 n9
b00000000 n10
b000 n11
b0001 n13
b0 n14
b0 n15
b00000000 n16
b0 n17
b000 n18
b1 n19
b00000000 n20
b1 n21
b001 n22
b1 n23
b0001 n25
b0 n26
b0 n27
b0 n28
b1 n29
b1 n30
b00000000 n31
b1 n32
b00000000 n33
bxxxxxxxx n34
bxxxxxxxx n35
bxxxxxxxx n36
bxxxxxxxx n37
bxxxxxxxx n38
bxxxxxxxx n39
bxxxxxxxx n40
#25
b0 n1
b0 n12
b0 n24
#30
1!
b00000000000000000000000000000011 t
b1 n1
b1 n12
b1 n24
b1 n0
b0010 n2
b0 n3
b0 n4
b00000000 n5
b0 n6
b1 n7
b00000000 n8
b000 n9
b00000000 n10
b000 n11
b0010 n13
b0 n14
b0 n15
b00000000 n16
b0 n17
b000 n18
b1 n19
b00000000 n20
b1 n21
b010 n22
b1 n23
b0010 n25
b0 n26
b0 n27
b0 n28
b1 n29
b1 n30
b00000000 n31
b1 n32
b00000000 n33
b00000000 n34
bxxxxxxxx n35
bxxxxxxxx n36
bxxxxxxxx n37
bxxxxxxxx n38
bxxxxxxxx n39
bxxxxxxxx n40
#35
b0 n1
b0 n12
b0 n24
#40
1!
b00000000000000000000000000000100 t
b1 n1
b1 n12
b1 n24
b1 n0
b0011 n2
b0 n3
b0 n4
b00000000 n5
b0 n6
b1 n7
b00000000 n8
b000 n9
b00000000 n10
b000 n11
b0011 n13
b0 n14
b0 n15
b00000000 n16
b0 n17
b000 n18
b1 n19
b00000000 n20
b1 n21
b011 n22
b1 n23
b0011 n25
b0 n26
b0 n27
b0 n28
b1 n29
b1 n30
b00000000 n31
b1 n32
b00000000 n33
b00000000 n34
bxxxxxxxx n35
b00000000 n36
bxxxxxxxx n37
bxxxxxxxx n38
bxxxxxxxx n39
bxxxxxxxx n40
#45
b0 n1
b0 n12
b0 n24
#50
1!
b00000000000000000000000000000101 t
b1 n1
b1 n12
b1 n24
b1 n0
b0100 n2
b0 n3
b0 n4
b00000000 n5
b0 n6
b1 n7
b00000000 n8
b000 n9
b00000000 n10
b000 n11
b0100 n13
b0 n14
b0 n15
b00000000 n16
b0 n17
b000 n18
b1 n19
b00000000 n20
b1 n21
b100 n22
b1 n23
b0100 n25
b0 n26
b0 n27
b0 n28
b1 n29
b1 n30
b00000000 n31
b1 n32
b00000000 n33
b00000000 n34
b00000000 n35
b00000000 n36
bxxxxxxxx n37
bxxxxxxxx n38
bxxxxxxxx n39
bxxxxxxxx n40
#55
b0 n1
b0 n12
b0 n24
#60
1!
b00000000000000000000000000000110 t
b1 n1
b1 n12
b1 n24
b1 n0
b0101 n2
b0 n3
b0 n4
b00000000 n5
b0 n6
b1 n7
b00000000 n8
b000 n9
b00000000 n10
b000 n11
b0101 n13
b0 n14
b0 n15
b00000000 n16
b0 n17
b000 n18
b1 n19
b00000000 n20
b1 n21
b101 n22
b1 n23
b0101 n25
b0 n26
b0 n27
b0 n28
b1 n29
b1 n30
b00000000 n31
b1 n32
b00000000 n33
b00000000 n34
b00000000 n35
b00000000 n36
bxxxxxxxx n37
bxxxxxxxx n38
bxxxxxxxx n39
b00000000 n40
#65
b0 n1
b0 n12
b0 n24
#70
1!
b00000000000000000000000000000111 t
b1 n1
b1 n12
b1 n24
b1 n0
b0110 n2
b0 n3
b0 n4
b00000000 n5
b0 n6
b1 n7
b00000000 n8
b000 n9
b00000000 n10
b000 n11
b0110 n13
b0 n14
b0 n15
b00000000 n16
b0 n17
b000 n18
b1 n19
b00000000 n20
b1 n21
b110 n22
b1 n23
b0110 n25
b0 n26
b0 n27
b0 n28
b1 n29
b1 n30
b00000000 n31
b1 n32
b00000000 n33
b00000000 n34
b00000000 n35
b00000000 n36
bxxxxxxxx n37
bxxxxxxxx n38
b00000000 n39
b00000000 n40
#75
b0 n1
b0 n12
b0 n24
#80
1!
b00000000000000000000000000001000 t
b1 n1
b1 n12
b1 n24
b1 n0
b0111 n2
b0 n3
b0 n4
b00000000 n5
b0 n6
b1 n7
b00000000 n8
b000 n9
b00000000 n10
b000 n11
b0111 n13
b0 n14
b0 n15
b00000000 n16
b0 n17
b000 n18
b1 n19
b00000000 n20
b1 n21
b111 n22
b1 n23
b0111 n25
b0 n26
b0 n27
b0 n28
b1 n29
b1 n30
b00000000 n31
b1 n32
b00000000 n33
b00000000 n34
b00000000 n35
b00000000 n36
b00000000 n37
bxxxxxxxx n38
b00000000 n39
b00000000 n40
#85
b0 n1
b0 n12
b0 n24
#90
1!
b00000000000000000000000000001001 t
b1 n1
b1 n12
b1 n24
b1 n0
b1000 n2
b0 n3
b1 n4
b00000000 n5
b0 n6
b1 n7
b00000000 n8
b000 n9
b00000000 n10
b000 n11
b1000 n13
b0 n14
b1 n15
b00000000 n16
b0 n17
b000 n18
b1 n19
b00000000 n20
b1 n21
b000 n22
b1 n23
b1000 n25
b0 n26
b1 n27
b0 n28
b1 n29
b1 n30
b00000000 n31
b1 n32
b00000000 n33
b00000000 n34
b00000000 n35
b00000000 n36
b00000000 n37
b00000000 n38
b00000000 n39
b00000000 n40
#95
b0 n1
b0 n12
b0 n24
#100
1!
b00000000000000000000000000001010 t
b1 n1
b1 n12
b1 n24
b1 n0
b1001 n2
b0 n3
b0 n4
b00000000 n5
b0 n6
b1 n7
b00000000 n8
b000 n9
b00000000 n10
b000 n11
b1001 n13
b0 n14
b0 n15
b00000000 n16
b0 n17
b000 n18
b1 n19
b00000000 n20
b0 n21
b001 n22
b1 n23
b1001 n25
b0 n26
b0 n27
b0 n28
b1 n29
b0 n30
b00000000 n31
b0 n32
b00000000 n33
b00000000 n34
b00000000 n35
b00000000 n36
b00000000 n37
b00000000 n38
b00000000 n39
b00000000 n40
#105
b0 n1
b0 n12
b0 n24
#110
1!
b00000000000000000000000000001011 t
b1 n1
b1 n12
b1 n24
b1 n0
b1001 n2
b0 n3
b0 n4
b00000000 n5
b0 n6
b0 n7
b00000000 n8
b000 n9
b00000000 n10
b000 n11
b1001 n13
b0 n14
b0 n15
b00000000 n16
b0 n17
b000 n18
b0 n19
b00000000 n20
b0 n21
b001 n22
b0 n23
b1001 n25
b0 n26
b0 n27
b0 n28
b0 n29
b0 n30
b00000000 n31
b0 n32
b00000000 n33
b00000000 n34
b00000000 n35
b00000000 n36
b00000000 n37
b00000000 n38
b00000000 n39
b00000000 n40
#115
b0 n1
b0 n12
b0 n24
#120
1!
b00000000000000000000000000001100 t
b1 n1
b1 n12
b1 n24
