backend/data/formal_work/formal_dbf16509/assertions/formal_dbf16509__04_ap_fifo_empty_prev_read_no_write/formal_dbf16509__04_ap_fifo_empty_prev_read_no_write_bmc/engine_0/trace.vcd
$version Generated by Yosys-SMTBMC $end
$timescale 1ns $end
$var integer 32 t smt_step $end
$var event 1 ! smt_clock $end
$scope module formal_wrapper $end
$var wire 1 n0 _va_past_valid $end
$var wire 1 n1 clk $end
$var wire 1 n2 data_start $end
$var wire 1 n3 empty $end
$var wire 1 n4 full $end
$var wire 8 n5 rd_data $end
$var wire 1 n6 rd_en $end
$var wire 1 n7 reset_n $end
$var wire 1 n8 rst_n $end
$scope module u_dut $end
$scope module _witness_ $end
$var wire 8 n9 anyinit_procdff_390 $end
$var wire 1 n10 anyinit_procdff_395 $end
$var wire 5 n11 anyinit_procdff_400 $end
$var wire 1 n12 anyinit_procdff_405 $end
$var wire 5 n13 anyinit_procdff_411 $end
$upscope $end
$var wire 1 n14 clk $end
$var wire 1 n15 empty $end
$var wire 1 n16 full $end
$var wire 256 n17 mem $end
$var wire 8 n18 rd_data $end
$var wire 1 n19 rd_en $end
$var wire 5 n20 rd_pointer $end
$var wire 5 n21 rd_pointer_next $end
$var wire 1 n22 reset_n $end
$var wire 8 n23 wr_data $end
$var wire 1 n24 wr_en $end
$var wire 5 n25 wr_pointer $end
$var wire 5 n26 wr_pointer_next $end
$upscope $end
$scope module u_monitor $end
$var wire 1 n27 ap_fifo_empty_prev_read_no_write_EN $end
$var wire 1 n28 clk_in $end
$var wire 1 n29 cp_fifo_empty_no_read_EN $end
$var wire 1 n30 cp_fifo_full_no_write_EN $end
$var wire 1 n31 data_start $end
$var wire 1 n32 empty_out $end
$var wire 1 n33 empty_out_past1 $end
$var wire 1 n34 empty_out_prev $end
$var wire 1 n35 full_out $end
$var wire 8 n36 rd_data_out $end
$var wire 1 n37 rd_en_in $end
$var wire 1 n38 rd_en_in_past1 $end
$var wire 1 n39 rst_n_in $end
$var wire 1 n40 rst_n_in_past1 $end
$var wire 8 n41 wr_data_in $end
$var wire 1 n42 wr_en_in $end
$upscope $end
$var wire 8 n43 wr_data $end
$var wire 1 n44 wr_en $end
$upscope $end
$enddefinitions $end
#0
1!
b00000000000000000000000000000000 t
b1 n1
b1 n14
b1 n28
b0 n0
b0 n2
b1 n3
b0 n4
b00000000 n5
b0 n6
b0 n7
b0 n8
b00000000 n9
b0 n10
b00000 n11
b0 n12
b00000 n13
b1 n15
b0 n16
b0000000000000000000000000000000000000000000000000000000000000000000000000000000000000000000000000000000000000000000000000000000000000000000000000000000000000000000000000000000000000000000000000000000000000000000000000000000000000000000000000000000000000000 n17
b00000000 n18
b0 n19
b00000 n20
b00001 n21
b0 n22
b00000000 n23
b0 n24
b00000 n25
b00001 n26
b0 n27
b0 n29
b0 n30
b0 n31
b1 n32
b0 n33
b0 n34
b0 n35
b00000000 n36
b0 n37
b0 n38
b0 n39
b0 n40
b00000000 n41
b0 n42
b00000000 n43
b0 n44
#5
b0 n1
b0 n14
b0 n28
#10
1!
b00000000000000000000000000000001 t
b1 n1
b1 n14
b1 n28
b1 n0
b0 n2
b1 n3
b0 n4
b00000000 n5
b0 n6
b1 n7
b1 n8
b00000000 n9
b1 n10
b00000 n11
b0 n12
b00000 n13
b1 n15
b0 n16
b0000000000000000000000000000000000000000000000000000000000000000000000000000000000000000000000000000000000000000000000000000000000000000000000000000000000000000000000000000000000000000000000000000000000000000000000000000000000000000000000000000000000000000 n17
b00000000 n18
b0 n19
b00000 n20
b00001 n21
b1 n22
b00000000 n23
b1 n24
b00000 n25
b00001 n26
b0 n27
b1 n29
b0 n30
b0 n31
b1 n32
b0 n33
b0 n34
b0 n35
b00000000 n36
b0 n37
b0 n38
b1 n39
b0 n40
b00000000 n41
b1 n42
b00000000 n43
b1 n44
#15
b0 n1
b0 n14
b0 n28
#20
1!
b00000000000000000000000000000010 t
b1 n1
b1 n14
b1 n28
b1 n0
b0 n2
b0 n3
b0 n4
b00000000 n5
b1 n6
b1 n7
b1 n8
b00000000 n9
b0 n10
b00000 n11
b0 n12
b00001 n13
b0 n15
b0 n16
b0000000000000000000000000000000000000000000000000000000000000000000000000000000000000000000000000000000000000000000000000000000000000000000000000000000000000000000000000000000000000000000000000000000000000000000000000000000000000000000000000000000000000000 n17
b00000000 n18
b1 n19
b00000 n20
b00001 n21
b1 n22
b00000000 n23
b0 n24
b00001 n25
b00010 n26
b0 n27
b0 n29
b0 n30
b0 n31
b0 n32
b0 n33
b1 n34
b0 n35
b00000000 n36
b1 n37
b0 n38
b1 n39
b1 n40
b00000000 n41
b0 n42
b00000000 n43
b0 n44
#25
b0 n1
b0 n14
b0 n28
#30
1!
b00000000000000000000000000000011 t
b1 n1
b1 n14
b1 n28
b1 n0
b0 n2
b1 n3
b0 n4
b00000000 n5
b0 n6
b1 n7
b1 n8
b00000000 n9
b1 n10
b00001 n11
b0 n12
b00001 n13
b1 n15
b0 n16
b0000000000000000000000000000000000000000000000000000000000000000000000000000000000000000000000000000000000000000000000000000000000000000000000000000000000000000000000000000000000000000000000000000000000000000000000000000000000000000000000000000000000000000 n17
b00000000 n18
b0 n19
b00001 n20
b00010 n21
b1 n22
b00000000 n23
b0 n24
b00001 n25
b00010 n26
b1 n27
b1 n29
b0 n30
b0 n31
b1 n32
b0 n33
b0 n34
b0 n35
b00000000 n36
b0 n37
b0 n38
b1 n39
b1 n40
b00000000 n41
b0 n42
b00000000 n43
b0 n44
#35
b0 n1
b0 n14
b0 n28
#40
1!
b00000000000000000000000000000100 t
b1 n1
b1 n14
b1 n28
b1 n0
b0 n2
b1 n3
b0 n4
b00000000 n5
b0 n6
b0 n7
b0 n8
b00000000 n9
b1 n10
b00001 n11
b0 n12
b00001 n13
b1 n15
b0 n16
b0000000000000000000000000000000000000000000000000000000000000000000000000000000000000000000000000000000000000000000000000000000000000000000000000000000000000000000000000000000000000000000000000000000000000000000000000000000000000000000000000000000000000000 n17
b00000000 n18
b0 n19
b00000 n20
b00001 n21
b0 n22
b00000000 n23
b0 n24
b00000 n25
b00001 n26
b0 n27
b0 n29
b0 n30
b0 n31
b1 n32
b0 n33
b1 n34
b0 n35
b00000000 n36
b0 n37
b0 n38
b0 n39
b1 n40
b00000000 n41
b0 n42
b00000000 n43
b0 n44
#45
b0 n1
b0 n14
b0 n28
#50
1!
b00000000000000000000000000000101 t
b1 n1
b1 n14
b1 n28
