backend/data/formal_work/formal_59af6849/assertions/formal_59af6849__09_ap_fifo_data_after_empty/formal_59af6849__09_ap_fifo_data_after_empty_bmc/engine_0/trace.vcd
$version Generated by Yosys-SMTBMC $end
$timescale 1ns $end
$var integer 32 t smt_step $end
$var event 1 ! smt_clock $end
$scope module formal_wrapper $end
$var wire 1 n0 _va_past_valid $end
$var wire 1 n1 clk $end
$var wire 1 n2 data_start $end
$var wire 1 n3 empty $end
$var wire 1 n4 full $end
$var wire 8 n5 rd_data $end
$var wire 1 n6 rd_en $end
$var wire 1 n7 reset_n $end
$var wire 1 n8 rst_n $end
$scope module u_dut $end
$scope module _witness_ $end
$var wire 8 n9 anyinit_procdff_401 $end
$var wire 1 n10 anyinit_procdff_406 $end
$var wire 5 n11 anyinit_procdff_411 $end
$var wire 1 n12 anyinit_procdff_416 $end
$var wire 5 n13 anyinit_procdff_422 $end
$upscope $end
$var wire 1 n14 clk $end
$var wire 1 n15 empty $end
$var wire 1 n16 full $end
$var wire 256 n17 mem $end
$var wire 8 n18 rd_data $end
$var wire 1 n19 rd_en $end
$var wire 5 n20 rd_pointer $end
$var wire 5 n21 rd_pointer_next $end
$var wire 1 n22 reset_n $end
$var wire 8 n23 wr_data $end
$var wire 1 n24 wr_en $end
$var wire 5 n25 wr_pointer $end
$var wire 5 n26 wr_pointer_next $end
$upscope $end
$scope module u_monitor $end
$var wire 1 n27 _va_ap_fifo_data_after_empty_stage_6 $end
$var wire 1 n28 _va_ap_fifo_data_after_empty_trig_7 $end
$var wire 1 n29 ap_fifo_data_after_empty_EN $end
$var wire 1 n30 clk_in $end
$var wire 1 n31 cp_fifo_empty_no_read_EN $end
$var wire 1 n32 cp_fifo_full_no_write_EN $end
$var wire 1 n33 data_start $end
$var wire 1 n34 empty_out $end
$var wire 1 n35 full_out $end
$var wire 8 n36 rd_data_out $end
$var wire 1 n37 rd_en_in $end
$var wire 1 n38 rst_n_in $end
$var wire 8 n39 wr_data_in $end
$var wire 8 n40 wr_data_in_past1 $end
$var wire 1 n41 wr_en_in $end
$upscope $end
$var wire 8 n42 wr_data $end
$var wire 1 n43 wr_en $end
$upscope $end
$enddefinitions $end
#0
1!
b00000000000000000000000000000000 t
b1 n1
b1 n14
b1 n30
b0 n0
b0 n2
b1 n3
b0 n4
b00000000 n5
b0 n6
b0 n7
b0 n8
b00000000 n9
b0 n10
b00000 n11
b0 n12
b00000 n13
b1 n15
b0 n16
b0000000000000000000000000000000000000000000000000000000000000000000000000000000000000000000000000000000000000000000000000000000000000000000000000000000000000000000000000000000000000000000000000000000000000000000000000000000000000000000000000000000000000000 n17
b00000000 n18
b0 n19
b00000 n20
b00001 n21
b0 n22
b00000000 n23
b0 n24
b00000 n25
b00001 n26
b0 n27
b0 n28
b0 n29
b0 n31
b0 n32
b0 n33
b1 n34
b0 n35
b00000000 n36
b0 n37
b0 n38
b00000000 n39
b10000000 n40
b0 n41
b00000000 n42
b0 n43
#5
b0 n1
b0 n14
b0 n30
#10
1!
b00000000000000000000000000000001 t
b1 n1
b1 n14
b1 n30
b1 n0
b0 n2
b1 n3
b0 n4
b00000000 n5
b0 n6
b1 n7
b1 n8
b00000000 n9
b1 n10
b00000 n11
b0 n12
b00000 n13
b1 n15
b0 n16
b0000000000000000000000000000000000000000000000000000000000000000000000000000000000000000000000000000000000000000000000000000000000000000000000000000000000000000000000000000000000000000000000000000000000000000000000000000000000000000000000000000000000000000 n17
b00000000 n18
b0 n19
b00000 n20
b00001 n21
b1 n22
b00000000 n23
b1 n24
b00000 n25
b00001 n26
b0 n27
b0 n28
b0 n29
b1 n31
b0 n32
b0 n33
b1 n34
b0 n35
b00000000 n36
b0 n37
b1 n38
b00000000 n39
b00000000 n40
b1 n41
b00000000 n42
b1 n43
#15
b0 n1
b0 n14
b0 n30
#20
1!
b00000000000000000000000000000010 t
b1 n1
b1 n14
b1 n30
b1 n0
b0 n2
b0 n3
b0 n4
b00000000 n5
b1 n6
b1 n7
b1 n8
b00000000 n9
b0 n10
b00000 n11
b0 n12
b00001 n13
b0 n15
b0 n16
b0000000000000000000000000000000000000000000000000000000000000000000000000000000000000000000000000000000000000000000000000000000000000000000000000000000000000000000000000000000000000000000000000000000000000000000000000000000000000000000000000000000000000000 n17
b00000000 n18
b1 n19
b00000 n20
b00001 n21
b1 n22
b10000000 n23
b0 n24
b00001 n25
b00010 n26
b1 n27
b0 n28
b0 n29
b0 n31
b0 n32
b0 n33
b0 n34
b0 n35
b00000000 n36
b1 n37
b1 n38
b10000000 n39
b00000000 n40
b0 n41
b10000000 n42
b0 n43
#25
b0 n1
b0 n14
b0 n30
#30
1!
b00000000000000000000000000000011 t
b1 n1
b1 n14
b1 n30
b1 n0
b0 n2
b1 n3
b0 n4
b00000000 n5
b0 n6
b1 n7
b1 n8
b00000000 n9
b1 n10
b00001 n11
b0 n12
b00001 n13
b1 n15
b0 n16
b0000000000000000000000000000000000000000000000000000000000000000000000000000000000000000000000000000000000000000000000000000000000000000000000000000000000000000000000000000000000000000000000000000000000000000000000000000000000000000000000000000000000000000 n17
b00000000 n18
b0 n19
b00001 n20
b00010 n21
b1 n22
b00000000 n23
b0 n24
b00001 n25
b00010 n26
b0 n27
b1 n28
b1 n29
b1 n31
b0 n32
b0 n33
b1 n34
b0 n35
b00000000 n36
b0 n37
b1 n38
b00000000 n39
b10000000 n40
b0 n41
b00000000 n42
b0 n43
#35
b0 n1
b0 n14
b0 n30
#40
1!
b00000000000000000000000000000100 t
b1 n1
b1 n14
b1 n30
b1 n0
b0 n2
b1 n3
b0 n4
b00000000 n5
b0 n6
b0 n7
b0 n8
b00000000 n9
b1 n10
b00001 n11
b0 n12
b00001 n13
b1 n15
b0 n16
b0000000000000000000000000000000000000000000000000000000000000000000000000000000000000000000000000000000000000000000000000000000000000000000000000000000000000000000000000000000000000000000000000000000000000000000000000000000000000000000000000000000000000000 n17
b00000000 n18
b0 n19
b00000 n20
b00001 n21
b0 n22
b00000000 n23
b0 n24
b00000 n25
b00001 n26
b0 n27
b0 n28
b0 n29
b0 n31
b0 n32
b0 n33
b1 n34
b0 n35
b00000000 n36
b0 n37
b0 n38
b00000000 n39
b00000000 n40
b0 n41
b00000000 n42
b0 n43
#45
b0 n1
b0 n14
b0 n30
#50
1!
b00000000000000000000000000000101 t
b1 n1
b1 n14
b1 n30
