backend/data/formal_work/fv_ada4dfec/assertions/fv_ada4dfec__07_ap_fifo_empty_after_reset/fv_ada4dfec__07_ap_fifo_empty_after_reset_bmc/engine_0/trace.vcd
$version Generated by Yosys-SMTBMC $end
$timescale 1ns $end
$var integer 32 t smt_step $end
$var event 1 ! smt_clock $end
$scope module formal_wrapper $end
$var wire 1 n0 _va_past_valid $end
$var wire 1 n1 clk $end
$var wire 1 n2 empty $end
$var wire 1 n3 full $end
$var wire 8 n4 rd_data $end
$var wire 1 n5 rd_en $end
$var wire 1 n6 reset_n $end
$var wire 1 n7 rst_n $end
$scope module u_dut $end
$scope module _witness_ $end
$var wire 4 n8 anyinit_procdff_212 $end
$var wire 4 n9 anyinit_procdff_217 $end
$var wire 8 n10 anyseq_auto_setundef_cc_550_execute_312 $end
$upscope $end
$var wire 1 n11 clk $end
$var wire 1 n12 empty $end
$var wire 1 n13 full $end
$var wire 8 n14 mem<0> $end
$var wire 8 n15 mem<1> $end
$var wire 8 n16 mem<2> $end
$var wire 8 n17 mem<3> $end
$var wire 8 n18 mem<4> $end
$var wire 8 n19 mem<5> $end
$var wire 8 n20 mem<6> $end
$var wire 8 n21 mem<7> $end
$var wire 8 n22 rd_data $end
$var wire 1 n23 rd_en $end
$var wire 4 n24 rd_ptr $end
$var wire 1 n25 reset_n $end
$var wire 8 n26 wr_data $end
$var wire 1 n27 wr_en $end
$var wire 4 n28 wr_ptr $end
$upscope $end
$scope module u_monitor $end
$var wire 1 n29 _va_ap_fifo_empty_after_reset_triggered_6 $end
$var wire 1 n30 ap_fifo_empty_after_reset_EN $end
$var wire 1 n31 clk $end
$var wire 1 n32 empty $end
$var wire 1 n33 full $end
$var wire 1 n34 rd_en $end
$var wire 1 n35 reset_n $end
$var wire 1 n36 reset_n_prev $end
$var wire 1 n37 wr_en $end
$upscope $end
$var wire 8 n38 wr_data $end
$var wire 1 n39 wr_en $end
$upscope $end
$enddefinitions $end
#0
1!
b00000000000000000000000000000000 t
b1 n1
b1 n11
b1 n31
b0 n0
b1 n2
b0 n3
b00000000 n4
b0 n5
b0 n6
b0 n7
b0000 n8
b0000 n9
b00000000 n10
b1 n12
b0 n13
b00000000 n14
b00000000 n15
b00000000 n16
b00000000 n17
b00000000 n18
b00000000 n19
b00000000 n20
b00000000 n21
b00000000 n22
b0 n23
b0000 n24
b0 n25
b00000000 n26
b0 n27
b0000 n28
b0 n29
b0 n30
b1 n32
b0 n33
b0 n34
b0 n35
b0 n36
b0 n37
b00000000 n38
b0 n39
#5
b0 n1
b0 n11
b0 n31
#10
1!
b00000000000000000000000000000001 t
b1 n1
b1 n11
b1 n31
b1 n0
b1 n2
b0 n3
b00000000 n4
b0 n5
b1 n6
b1 n7
b0000 n8
b0000 n9
b00000000 n10
b1 n12
b0 n13
b00000000 n14
b00000000 n15
b00000000 n16
b00000000 n17
b00000000 n18
b00000000 n19
b00000000 n20
b00000000 n21
b00000000 n22
b0 n23
b0000 n24
b1 n25
b00000000 n26
b1 n27
b0000 n28
b0 n29
b0 n30
b1 n32
b0 n33
b0 n34
b1 n35
b0 n36
b1 n37
b00000000 n38
b1 n39
#15
b0 n1
b0 n11
b0 n31
#20
1!
b00000000000000000000000000000010 t
b1 n1
b1 n11
b1 n31
b1 n0
b0 n2
b0 n3
b00000000 n4
b0 n5
b1 n6
b1 n7
b0001 n8
b0000 n9
b00000000 n10
b0 n12
b0 n13
b00000000 n14
b00000000 n15
b00000000 n16
b00000000 n17
b00000000 n18
b00000000 n19
b00000000 n20
b00000000 n21
b00000000 n22
b0 n23
b0000 n24
b1 n25
b00000000 n26
b0 n27
b0001 n28
b1 n29
b1 n30
b0 n32
b0 n33
b0 n34
b1 n35
b1 n36
b0 n37
b00000000 n38
b0 n39
#25
b0 n1
b0 n11
b0 n31
#30
1!
b00000000000000000000000000000011 t
b1 n1
b1 n11
b1 n31
b1 n0
b1 n2
b0 n3
b00000000 n4
b0 n5
b0 n6
b0 n7
b0001 n8
b0000 n9
b00000000 n10
b1 n12
b0 n13
b00000000 n14
b00000000 n15
b00000000 n16
b00000000 n17
b00000000 n18
b00000000 n19
b00000000 n20
b00000000 n21
b00000000 n22
b0 n23
b0000 n24
b0 n25
b00000000 n26
b0 n27
b0000 n28
b0 n29
b0 n30
b1 n32
b0 n33
b0 n34
b0 n35
b1 n36
b0 n37
b00000000 n38
b0 n39
#35
b0 n1
b0 n11
b0 n31
#40
1!
b00000000000000000000000000000100 t
b1 n1
b1 n11
b1 n31
