backend/data/formal_work/axi_buggy_fail/axi_buggy_fail_bmc/engine_0/trace.vcd
$version Generated by Yosys-SMTBMC $end
$timescale 1ns $end
$var integer 32 t smt_step $end
$var event 1 ! smt_clock $end
$scope module formal_wrapper $end
$var wire 1 n0 _va_past_valid $end
$var wire 1 n1 awready $end
$var wire 1 n2 awvalid $end
$var wire 1 n3 clk $end
$var wire 1 n4 rst_n $end
$scope module u_dut $end
$var wire 1 n5 awready $end
$var wire 1 n6 awvalid $end
$var wire 1 n7 clk $end
$var wire 1 n8 rst_n $end
$upscope $end
$scope module u_monitor $end
$var wire 1 n9 _va_assert_must_respond_triggered_1 $end
$var wire 1 n10 assert_must_respond_EN $end
$var wire 1 n11 awready $end
$var wire 1 n12 awvalid $end
$var wire 1 n13 clk $end
$var wire 1 n14 rst_n $end
$upscope $end
$upscope $end
$enddefinitions $end
#0
1!
b00000000000000000000000000000000 t
b1 n3
b1 n7
b1 n13
b0 n0
b0 n1
b0 n2
b0 n4
b0 n5
b0 n6
b0 n8
b0 n9
b0 n10
b0 n11
b0 n12
b0 n14
#5
b0 n3
b0 n7
b0 n13
#10
1!
b00000000000000000000000000000001 t
b1 n3
b1 n7
b1 n13
b1 n0
b0 n1
b1 n2
b1 n4
b0 n5
b1 n6
b1 n8
b0 n9
b0 n10
b0 n11
b1 n12
b1 n14
#15
b0 n3
b0 n7
b0 n13
#20
1!
b00000000000000000000000000000010 t
b1 n3
b1 n7
b1 n13
b1 n0
b0 n1
b0 n2
b1 n4
b0 n5
b0 n6
b1 n8
b1 n9
b1 n10
b0 n11
b0 n12
b1 n14
#25
b0 n3
b0 n7
b0 n13
#30
1!
b00000000000000000000000000000011 t
b1 n3
b1 n7
b1 n13
b1 n0
b0 n1
b0 n2
b0 n4
b0 n5
b0 n6
b0 n8
b0 n9
b0 n10
b0 n11
b0 n12
b0 n14
#35
b0 n3
b0 n7
b0 n13
#40
1!
b00000000000000000000000000000100 t
b1 n3
b1 n7
b1 n13
